hardRock	women:man:street:dont:know:way:wanna:turn:keep:come:put:hand:caus:im:who:gonna:make:burn:im:gonna:take:dont:fool:im:gonna:pull:pull:pull:trigger:shoot:thrill:play:kill:women:pill:yeah:shoot:thrill:play:kill:i:got:gun:readi:gonna:fire:yeah:im:evil:i:skin:bomb:that:readi:blow:caus:im:illeg:i:got:women:know:im:gonna:take:dont:fool:im:gonna:pull:pull:pull:trigger:shoot:thrill:play:kill:women:pill:shoot:thrill:play:kill:i:got:gun:readi:gonna:fire:caus:i:shoot:thrill:im:readi:kill:i:cant:i:cant:fill:i:shoot:thrill:play:kill:yeah:pull:trigger:pull:pull:pull:pull:trigger:oh:shoot:thrill:play:kill:women:pill:i:shoot:thrill:play:kill:i:got:gun:readi:gonna:fire:caus:i:shoot:thrill:im:readi:kill:i:cant:i:cant:thrill:caus:i:shoot:thrill:play:again:yeah:shoot:yeah:im:gonna:bottom:shoot:im:gonna:shoot:oh:hoo:yeah:yeah:yeah:im:gonna:shoot:yeah:yeah:im:gonna:yeah:yeah:yeah:yeah:shoot:shoot:shoot:shoot:shoot:shoot:shoot:oh:oh:oh:oh:oh:oh:ooooooh:im:gonna:shoot:thrill:play:kill:shoot:thrill
hardRock	fast:machin:kept:motor:clean:best:damn:woman:i:sightless:eye:tell:lie:knockin:american:thigh:take:share:fight:air:told:come:i:caus:wall:start:shake:earth:quak:mind:ach:make:shook:night:long:yeah:shook:night:long:work:time:seduct:line:she:mine:mine:want:applaus:cours:meal:come:back:cool:take:im:back:ring:take:swing:wall:shake:earth:quak:mind:ach:make:shook:night:long:yeah:shook:night:long:knock:i:shook:night:long:shake:shook:night:long:yeah:shook:took:took:shook:night:long:ah:shook:night:long:yeah:yeah:shook:night:long:got:shook:night:long:yeah:shook:yeah:shook:night:long
hardRock	livin:easi:lovin:free:season:ticket:way:ride:askin:nothin:leav:takin:everythin:stride:dont:reason:dont:rhyme:aint:nothin:id:goin:parti:time:friend:gonna:ehh:im:highway:hell:highway:hell:highway:hell:im:highway:hell:stop:sign:speed:limit:nobodi:gonna:slow:wheel:gonna:spin:nobodi:gonna:mess:hey:satan:payin:due:playin:rock:band:hey:momma:look:im:way:promis:land:im:highway:hell:highway:hell:im:highway:hell:highway:hell:mmm:dont:stop:ehh:ehh:oww:im:highway:hell:highway:hell:im:highway:hell:highway:hell:highway:hell:im:highway:hell:highway:hell:highway:hell:highway:hell:momma:im:highway:hell:im:goin:way:wowwww:im:highway:hell
pop	hey:brother:there:endless:road:rediscov:hey:sister:know:water:sweet:blood:thicker:oh:sky:come:fall:there:world:i:wouldnt:hey:brother:believ:hey:sister:believ:love:i:wonder:oh:sky:come:fall:there:world:i:wouldnt:im:home:oh:brother:i:hear:call:i:lose:oh:sister:i:help:hang:oh:sky:come:fall:there:world:i:wouldnt:hey:brother:there:endless:road:rediscov:hey:sister:believ:love:i:wonder:oh:sky:come:fall:there:world:i:wouldnt:im:home:oh:brother:i:hear:call:i:lose:oh:sister:i:help:hang:oh:sky:come:fall:there:world:i:wouldnt
pop	im:good:wast:time:i:think:lyric:rhyme:your:ask:im:tri:grow:mustach:i:eat:chees:pizza:pleas:homemad:quesadilla:smell:feet:i:i:moon:look:toe:nail:i:love:say:name:wanna:know:goe:gonna:tell:ya:there:part:show:close:gonna:see:rememb:ask:im:tri:best:impress:easier:ya:take:guess:rest:wanna:hear:live:brain:heart:ask:perus:time:confus:slightli:amus:introduc:la:la:la:da:la:la:la:la:la:la:la:da:i:trust:dog:watch:food:i:word:dude:noun:adverb:adject:i:i:car:i:cool:guitar:superhero:check:lot:zero:em:i:love:sound:violin:make:smile:wanna:know:goe:gonna:tell:ya:there:part:show:close:gonna:see:rememb:ask:im:tri:best:impress:easier:ya:take:guess:rest:wanna:hear:live:brain:heart:ask:perus:time:confus:possibl:amus:introduc:probabl:know:want:care:ask:time:wanna:know:goe:gonna:tell:ya:there:part:show:close:gonna:see:rememb:ask:im:tri:best:impress:easier:ya:take:guess:rest:wanna:hear:live:brain:heart:ask:perus:time:confus:hope:amus:introduc:introduc
folk	oh:misti:eye:mountain:keep:care:watch:brother:soul:sky:fill:fire:smoke:keep:watch:durin:son:end:fire:shall:burn:watch:flame:climb:high:night:call:father:oh:stand:watch:flame:burn:auburn:mountainsid:die:tonight:die:rais:glass:wine:time:call:father:oh:prepar:watch:flame:burn:auburn:mountainsid:desol:come:sky:i:see:fire:mountain:i:see:fire:burn:tree:i:see:fire:hollow:soul:i:see:fire:blood:breez:i:hope:rememb:oh:peopl:fall:sure:ill:confin:mountain:hall:got:close:flame:call:father:oh:hold:fast:watch:flame:burn:auburn:mountainsid:desol:come:sky:i:see:fire:mountain:i:see:fire:burn:tree:i:see:fire:hollow:soul:i:see:fire:blood:breez:i:hope:rememb:night:burn:i:cover:eye:dark:return:brother:die:sky:fall:crash:lone:town:shadow:ground:i:hear:peopl:scream:i:see:fire:mountain:i:see:fire:burn:tree:i:see:fire:hollow:soul:i:see:fire:blood:breez:i:see:fire:oh:know:i:citi:burn:fire:i:see:fire:feel:heat:skin:fire:i:see:fire:oh:fire:i:see:fire:burn:auburn:mountainsid