663
abehind 191
abus 8
ace 85
acura 526
addict 604
adject 651
admit 553
adverb 650
advic 89
again 282
ahhhh 550
aint 356
ajump 148
alright 385
am 308
amount 524
amphetamin 557
amus 644
anacin 516
arun 146
ask 96
aslid 170
aspirin 525
astarin 66
athump 153
avenu 293
away 114
awe 173
aworri 402
ayou 156
babi 302
back 47
bad 615
band 344
bank 546
bannist 517
barf 598
basketbal 488
bean 555
beat 264
bed 204
beg 334
began 71
believ 20
benadryl 510
bent 13
best 130
bet 237
better 614
bird 393
bit 194
bitch 435
bitter 230
bizarr 452
bizzi 450
bled 342
blow 312
blowin 545
blown 330
blue 567
blunt 464
boil 618
boredom 69
born 482
bottl 91
bought 337
bound 59
bout 188
boy 106
brain 484
brand 267
break 37
breath 324
broke 136
broken 14
brown 154
bu 255
bum 94
buy 440
c 582
cain 486
calib 519
came 142
cant 40
capitol 481
capsul 536
car 652
card 79
care 662
cash 491
cast 183
caught 326
caus 38
celebr 487
chain 42
changin 375
check 656
chees 625
chevi 279
cheyenn 259
choic 198
choru 403
chrome 518
chronic 597
cigarett 95
clayton 257
close 33
clue 258
cmon 434
coke 442
colorado 497
come 295
complainin 357
comput 246
confus 642
control 39
cool 653
couldnt 417
count 116
countin 122
coupl 280
cover 329
crackin 535
crankll 544
crazi 423
cri 215
crime 588
crush 134
cup 283
curfew 571
cussin 478
d 591
da 178
dad 211
dark 68
day 140
dead 208
dealin 123
death 0
deathli 100
denver 496
did 139
die 27
digniti 15
dime 339
disc 441
dizzi 449
doesnt 51
dog 461
doin 443
done 124
dont 32
doorstep 395
downer 476
drank 92
dream 216
drink 205
drive 268
drivein 360
drown 241
drug 404
dude 648
dust 531
dyin 609
e 587
easier 639
eat 624
ecstasi 456
eight 513
em 111
eminem 405
end 298
engin 501
evenin 57
expand 537
express 103
extra 539
eye 34
face 77
fade 135
fall 285
fate 331
fear 197
feel 11
feet 630
felt 266
fester 548
fiend 554
fight 30
final 48
find 180
finger 341
finish 132
fire 310
fitter 225
five 338
flatlin 25
fli 242
floor 422
fog 151
fold 112
food 647
forest 212
forev 31
framin 528
free 45
friend 281
fuck 245
fuckin 407
gambler 61
game 105
gang 592
gangnam 238
genit 472
get 300
ghetto 558
gimmick 490
girl 155
give 9
go 159
goe 635
goin 507
gone 376
gonna 26
good 619
goodby 24
got 99
gotta 36
grab 445
grass 190
grate 468
green 189
grindin 585
grow 622
grown 182
guess 372
guitar 654
gun 311
guy 343
hahahahaha 520
half 483
hand 90
happen 157
happier 223
hard 179
harder 50
hash 232
he 503
head 465
hear 220
heard 22
heart 152
heartbeat 2
heaven 320
held 81
hennessey 583
hey 138
hi 454
hide 165
hind 166
hold 19
hollow 143
homemad 628
hope 131
hour 596
huh 462
huhuh 382
i 4
id 354
iggi 498
ill 88
im 181
impress 638
influenc 429
interscop 479
introduc 645
itd 380
ive 74
jello 562
jenni 256
jimmi 346
job 358
jodi 348
judgment 575
jump 265
k 578
keep 41
kid 438
kill 52
killin 368
kinda 263
king 559
kiss 274
knew 366
know 110
knowhatimsayin 608
knowin 78
known 351
la 176
laugh 145
laughin 420
lay 193
lead 319
learn 107
leav 18
left 323
leg 467
let 455
liar 227
lie 325
life 46
light 97
limit 493
line 304
linin 600
listen 430
listenin 432
live 235
load 332
look 352
lookin 303
lord 185
lose 306
loser 129
lost 102
lot 657
love 17
lucif 428
lyric 620
main 290
make 53
mama 362
man 288
mannequin 512
manson 594
marilyn 593
marri 349
mcvay 509
mean 222
meddl 560
melodi 398
memori 184
mescalin 469
mess 314
messag 401
met 60
mind 82
mine 161
miss 275
missin 572
misti 149
mixin 504
mmmm 251
money 117
monster 418
month 534
moon 631
morn 150
mornin 388
motherfuck 489
motherfuckin 437
move 307
mum 210
mushroom 570
music 425
mustach 623
n 419
nail 633
name 634
nasti 229
naw 415
need 370
needl 466
new 144
newspap 611
nigga 529
night 98
nose 414
nothin 373
noun 649
numb 576
nuttin 416
oh 247
ohh 367
ohhh 383
ohhhhhh 566
ohno 250
ohnow 252
ohoh 249
ohohohoh 248
okay 457
ol 294
old 160
older 301
overcom 186
overdos 612
overtook 70
pant 459
parent 589
park 292
part 637
peer 617
pencil 446
peopl 76
perch 394
perfect 573
perus 641
petti 277
pick 610
pill 568
pizza 626
play 104
pleas 627
plu 444
pop 499
porch 363
possibl 661
pound 500
power 433
pressur 538
probabl 431
proof 549
public 606
pull 458
pure 399
purpl 569
push 49
puttin 413
quesadilla 629
quick 541
quiet 101
quit 347
quitter 228
radio 163
rain 141
rainbow 167
ran 533
ransom 590
rape 574
readi 305
readin 75
real 231
refus 10
rememb 172
remind 273
rest 640
restless 369
rhyme 621
right 108
ring 565
rise 387
risin 390
roll 272
room 408
rough 262
run 115
rust 261
sampl 542
say 221
sayin 83
scalin 556
scandal 532
scare 199
school 254
screen 219
secret 125
see 84
sellin 521
set 44
sex 460
sha 175
shadi 448
shadow 321
shake 315
shit 411
shooter 243
shouldv 350
show 316
sight 309
sign 480
sing 174
singin 386
sittin 118
six 335
skip 147
slap 436
sleep 63
slightli 643
slip 169
slow 3
slowli 244
smack 530
small 269
smashin 527
smell 561
smile 389
smokin 286
snappl 477
snif 495
sniffin 485
son 73
song 397
sound 659
speak 72
speakin 133
special 577
spend 202
spent 359
spinnin 410
spleen 563
stadium 192
stand 29
standin 361
star 218
stare 217
start 409
stay 313
steadi 278
stephani 453
stereo 271
stiffer 511
stolen 16
stomach 599
stomp 439
stream 214
street 291
stretcher 540
string 336
stronger 54
strongest 317
stupid 206
style 239
substanti 523
summer 56
sun 391
sunlight 164
superhero 655
sure 470
surround 1
surviv 318
survivin 126
swallow 93
swallowin 515
sweet 396
swifti 508
swim 213
tab 579
tabl 119
tag 233
tailgat 287
take 6
taken 299
takin 463
tarantula 522
tast 86
tattoo 492
tee 177
teeth 586
tell 602
tester 543
that 209
therapeut 426
there 322
therel 120
theyr 607
thing 21
think 187
thinner 224
thought 296
three 392
threw 421
throw 127
tidal 327
til 340
time 121
tire 62
toe 632
told 364
tom 276
tonight 28
took 64
top 195
tour 475
town 270
train 58
transistor 162
tri 345
truck 260
true 400
trust 646
truth 43
tuesday 158
turn 65
twelv 595
twitter 234
two 424
tylenol 584
uh 381
uncl 547
unnnnggghhh 494
unwind 371
view 240
violin 660
visit 451
vitamin 581
voic 196
vomit 601
wait 253
wakin 506
walk 113
wall 168
wanna 355
want 333
warm 55
warp 474
wart 473
wast 505
watch 551
waterfal 171
wave 328
way 80
wed 284
weed 447
weekday 201
weekend 203
went 378
werent 226
weve 35
whiskey 87
whisper 23
whoahh 406
whoever 427
whore 471
wife 502
window 67
winner 128
wish 200
wonder 377
wont 5
word 137
work 207
world 7
worri 384
wrong 379
x 580
ya 636
yay 374
yeah 353
year 514
yellow 564
yesterday 289
yknahmsayin 605
yknow 616
yknowhatimsayin 603
yo 412
youd 365
youknowhatimsayin 613
youll 552
young 297
your 12
youtub 236
youv 109
zero 658
